<?xml version="1.0" encoding="UTF-8" standalone="no"?>
<svg
   viewBox="0 0 232.00977 232.00976"
   id="svg2"
   version="1.1"
   inkscape:version="1.1.2 (0a00cf5339, 2022-02-04)"
   sodipodi:docname="logo.toot-cat.svg"
   inkscape:export-filename="/mnt/TeraLap/home/woozle/nextcloud-statler/woozle/projects/toot.cat/logo.toot-cat.3.svg.png"
   inkscape:export-xdpi="300"
   inkscape:export-ydpi="300"
   width="232.00977"
   height="232.00977"
   xmlns:inkscape="http://www.inkscape.org/namespaces/inkscape"
   xmlns:sodipodi="http://sodipodi.sourceforge.net/DTD/sodipodi-0.dtd"
   xmlns="http://www.w3.org/2000/svg"
   xmlns:svg="http://www.w3.org/2000/svg"
   xmlns:rdf="http://www.w3.org/1999/02/22-rdf-syntax-ns#"
   xmlns:cc="http://creativecommons.org/ns#"
   xmlns:dc="http://purl.org/dc/elements/1.1/">
  <metadata
     id="metadata12">
    <rdf:RDF>
      <cc:Work
         rdf:about="">
        <dc:format>image/svg+xml</dc:format>
        <dc:type
           rdf:resource="http://purl.org/dc/dcmitype/StillImage" />
      </cc:Work>
    </rdf:RDF>
  </metadata>
  <defs
     id="defs10" />
  <sodipodi:namedview
     pagecolor="#ffffff"
     bordercolor="#666666"
     borderopacity="1"
     objecttolerance="10"
     gridtolerance="10"
     guidetolerance="10"
     inkscape:pageopacity="0"
     inkscape:pageshadow="2"
     inkscape:window-width="1920"
     inkscape:window-height="1006"
     id="namedview8"
     showgrid="false"
     inkscape:zoom="2.0343971"
     inkscape:cx="148.6927"
     inkscape:cy="121.16612"
     inkscape:window-x="0"
     inkscape:window-y="25"
     inkscape:window-maximized="1"
     inkscape:current-layer="svg2"
     inkscape:pagecheckerboard="0"
     height="232.00977px" />
  <path
     d="m 211.73307,154.63197 c -2.91087,12.99714 -26.07105,27.22126 -52.67053,29.97793 -13.87048,1.4364 -27.52709,2.75666 -42.08956,2.17693 -23.815537,-0.947 -42.607656,-4.9336 -42.607656,-4.9336 0,2.01215 0.142971,3.92803 0.428913,5.71981 3.096182,20.39857 23.305433,21.62056 42.448693,22.19036 19.32168,0.57377 36.52624,-4.13452 36.52624,-4.13452 l 0.79378,15.16021 c 0,0 -13.51477,6.29856 -37.58997,7.45701 -13.2757,0.63332 -29.759703,-0.28986 -48.959004,-4.70034 -41.640042,-9.56546 -48.801177,-48.08837 -49.896908,-87.17612 -0.33398,-11.6054 -0.128102,-22.54871 -0.128102,-31.70121 0,-39.96925 30.173761,-51.684853 30.173761,-51.684853 15.214412,-6.064279 41.320931,-8.614472 68.461413,-8.807052 h 0.66683 c 27.14049,0.19258 53.26416,2.742773 68.47742,8.807052 0,0 30.17262,11.715603 30.17262,51.684853 0,0 0.37859,29.48953 -4.20794,49.96354"
     id="path4"
     style="fill:#29db34;fill-opacity:1;stroke:#000000;stroke-width:0.85244;stroke-opacity:0.988539"
     inkscape:connector-curvature="0" />
  <path
     d="m 189.52917,146.31372 v -35.54116 h -16.11882 v 34.4965 c 0,7.27182 -3.50249,10.96277 -10.50831,10.96277 -7.74604,0 -11.62825,-4.3784 -11.62825,-13.03607 V 124.31383 H 135.2501 v 18.88193 c 0,8.65767 -3.88304,13.03607 -11.62909,13.03607 -7.00583,0 -10.50831,-3.69095 -10.50831,-10.96277 v -34.4965 H 96.993875 v 35.54116 c 0,7.2638 2.117185,13.03606 6.369915,17.30656 4.38542,4.27051 10.12862,6.45972 17.25795,6.45972 8.24842,0 14.49483,-2.7695 18.6249,-8.3092 l 4.01489,-5.87942 4.01572,5.87942 c 4.12923,5.5397 10.37563,8.3092 18.62489,8.3092 7.12851,0 12.8717,-2.18921 17.25794,-6.45972 4.2519,-4.2705 6.36909,-10.04276 6.36909,-17.30656"
     id="path6"
     inkscape:connector-curvature="0"
     style="fill:#ffffff;stroke-width:0.794394" />
  <path
     style="fill:#3fa725;fill-opacity:1;stroke:#000000;stroke-width:0.873833;stroke-miterlimit:4;stroke-dasharray:none;stroke-opacity:0.988539"
     d="M 134.19261,66.686776 H 115.40228 V 40.967284 c 0,-11.792775 -4.62039,-17.756686 -13.83735,-17.756686 -8.336168,0 -12.503757,5.02752 -12.503757,14.932616 V 85.131608 H 69.881526 V 36.720257 c 0,-9.894175 2.519222,-17.756689 7.579511,-23.57364 5.218175,-5.8169484 12.051948,-8.7989042 20.535079,-8.7989042 9.814734,0 17.247284,3.7723775 22.161604,11.3181292 2.14596,2.790536 3.04942,6.547462 4.36705,10.028278 z"
     id="path6-5"
     inkscape:connector-curvature="0"
     sodipodi:nodetypes="ccsssccscsccc" />
  <path
     style="fill:#3fa725;fill-opacity:1;stroke:#000000;stroke-width:0.873833;stroke-miterlimit:4;stroke-dasharray:none;stroke-opacity:0.988539"
     d="m 147.85177,67.148719 h 18.79032 V 41.429228 c 0,-11.792778 4.62041,-17.756689 13.83736,-17.756689 8.33616,0 12.50375,5.02752 12.50375,14.932617 v 46.988391 h 19.17965 V 37.182199 c 0,-9.894175 -2.51923,-17.756687 -7.57952,-23.573639 -5.21817,-5.8169491 -12.05194,-8.7989048 -20.53506,-8.7989048 -9.81474,0 -17.24729,3.7723776 -22.16161,11.3181288 -2.14596,2.790536 -3.04942,6.547462 -4.36704,10.028277 z"
     id="path6-5-3"
     inkscape:connector-curvature="0"
     sodipodi:nodetypes="ccsssccscsccc" />
  <path
     style="fill:#ffffff;stroke-width:0.794394"
     inkscape:connector-curvature="0"
     d="m 120.91713,92.854692 c 0,5.111859 -3.73599,9.256068 -8.34499,9.256068 -4.60834,0 -8.3437,-4.144209 -8.3437,-9.256068 0,-5.111865 3.73536,-9.256789 8.3437,-9.256789 4.609,0 8.34499,4.144924 8.34499,9.256789 m 60.16562,0 c 0,5.111859 -3.736,9.256068 -8.34433,9.256068 -4.60834,0 -8.34436,-4.144209 -8.34436,-9.256068 0,-5.111865 3.73602,-9.256789 8.34436,-9.256789 4.60833,0 8.34433,4.144924 8.34433,9.256789"
     id="path4225"
     sodipodi:nodetypes="csssccsssc"
     inkscape:export-xdpi="300"
     inkscape:export-ydpi="300" />
</svg>
